code/verilog/new files/make separate patch for each filter/dump.vcd
$date
	Wed Jun  3 00:34:17 2026
$end
$version
	Icarus Verilog
$end
$timescale
	1s
$end
$scope module tb $end
$var parameter 32 ! DATA_WIDTH $end
$var parameter 32 " IMAGE_HEIGHT $end
$var parameter 32 # IMAGE_WIDTH $end
$var parameter 32 $ KERNEL_SIZE $end
$var reg 1 % clk $end
$var reg 8 & data_in [7:0] $end
$var reg 1 ' data_in_valid $end
$var reg 1 ( rst $end
$var integer 32 ) i [31:0] $end
$scope module DUT $end
$var wire 1 % clk $end
$var wire 8 * pixel_in [7:0] $end
$var wire 1 ' pixel_in_valid $end
$var wire 1 ( rst $end
$var wire 1 + result9_valid $end
$var wire 20 , result9 [19:0] $end
$var wire 1 - result8_valid $end
$var wire 20 . result8 [19:0] $end
$var wire 1 / result7_valid $end
$var wire 20 0 result7 [19:0] $end
$var wire 1 1 result6_valid $end
$var wire 20 2 result6 [19:0] $end
$var wire 1 3 result5_valid $end
$var wire 20 4 result5 [19:0] $end
$var wire 1 5 result4_valid $end
$var wire 20 6 result4 [19:0] $end
$var wire 1 7 result3_valid $end
$var wire 20 8 result3 [19:0] $end
$var wire 1 9 result2_valid $end
$var wire 20 : result2 [19:0] $end
$var wire 1 ; result1_valid $end
$var wire 1 < result16_valid $end
$var wire 20 = result16 [19:0] $end
$var wire 1 > result15_valid $end
$var wire 20 ? result15 [19:0] $end
$var wire 1 @ result14_valid $end
$var wire 20 A result14 [19:0] $end
$var wire 1 B result13_valid $end
$var wire 20 C result13 [19:0] $end
$var wire 1 D result12_valid $end
$var wire 20 E result12 [19:0] $end
$var wire 1 F result11_valid $end
$var wire 20 G result11 [19:0] $end
$var wire 1 H result10_valid $end
$var wire 20 I result10 [19:0] $end
$var wire 20 J result1 [19:0] $end
$var wire 1 K control_out_valid $end
$var wire 72 L control_out [71:0] $end
$var parameter 32 M DATA_WIDTH $end
$var parameter 32 N IMAGE_HEIGHT $end
$var parameter 32 O IMAGE_WIDTH $end
$var parameter 32 P KERNEL_SIZE $end
$scope module line_buffer_DUT $end
$var wire 1 % clk $end
$var wire 8 Q data_in [7:0] $end
$var wire 1 ' data_in_valid $end
$var wire 1 ( rst $end
$var wire 24 R line_buf_3_data_out [23:0] $end
$var wire 24 S line_buf_2_data_out [23:0] $end
$var wire 24 T line_buf_1_data_out [23:0] $end
$var wire 24 U line_buf_0_data_out [23:0] $end
$var parameter 32 V DATA_WIDTH $end
$var parameter 32 W IDLE $end
$var parameter 32 X IMAGE_WIDTH $end
$var parameter 32 Y KERNEL_SIZE $end
$var parameter 32 Z READ_BUFFER $end
$var parameter 32 [ TOTAL_COUNT_WIDTH $end
$var reg 2 \ current_line_buffer [1:0] $end
$var reg 2 ] current_read_line_buffer [1:0] $end
$var reg 72 ^ data_out [71:0] $end
$var reg 1 K data_out_valid $end
$var reg 4 _ line_buf_data_valid [3:0] $end
$var reg 4 ` line_buf_read_data [3:0] $end
$var reg 3 a pixel_counter [2:0] $end
$var reg 3 b read_counter [2:0] $end
$var reg 1 c read_line_buffer $end
$var reg 2 d read_state [1:0] $end
$var reg 5 e total_pixel_counter [4:0] $end
$scope module line_buf_0 $end
$var wire 1 % clk $end
$var wire 8 f data_in [7:0] $end
$var wire 1 g data_in_valid $end
$var wire 1 h read_data $end
$var wire 1 ( rst $end
$var wire 24 i data_out [23:0] $end
$var parameter 32 j DATA_WIDTH $end
$var parameter 32 k IMAGE_WIDTH $end
$var parameter 32 l KERNEL_SIZE $end
$var reg 8 m d0 [7:0] $end
$var reg 8 n d1 [7:0] $end
$var reg 8 o d2 [7:0] $end
$var reg 3 p r_ptr [2:0] $end
$var reg 3 q w_ptr [2:0] $end
$upscope $end
$scope module line_buf_1 $end
$var wire 1 % clk $end
$var wire 8 r data_in [7:0] $end
$var wire 1 s data_in_valid $end
$var wire 1 t read_data $end
$var wire 1 ( rst $end
$var wire 24 u data_out [23:0] $end
$var parameter 32 v DATA_WIDTH $end
$var parameter 32 w IMAGE_WIDTH $end
$var parameter 32 x KERNEL_SIZE $end
$var reg 8 y d0 [7:0] $end
$var reg 8 z d1 [7:0] $end
$var reg 8 { d2 [7:0] $end
$var reg 3 | r_ptr [2:0] $end
$var reg 3 } w_ptr [2:0] $end
$upscope $end
$scope module line_buf_2 $end
$var wire 1 % clk $end
$var wire 8 ~ data_in [7:0] $end
$var wire 1 !" data_in_valid $end
$var wire 1 "" read_data $end
$var wire 1 ( rst $end
$var wire 24 #" data_out [23:0] $end
$var parameter 32 $" DATA_WIDTH $end
$var parameter 32 %" IMAGE_WIDTH $end
$var parameter 32 &" KERNEL_SIZE $end
$var reg 8 '" d0 [7:0] $end
$var reg 8 (" d1 [7:0] $end
$var reg 8 )" d2 [7:0] $end
$var reg 3 *" r_ptr [2:0] $end
$var reg 3 +" w_ptr [2:0] $end
$upscope $end
$scope module line_buf_3 $end
$var wire 1 % clk $end
$var wire 8 ," data_in [7:0] $end
$var wire 1 -" data_in_valid $end
$var wire 1 ." read_data $end
$var wire 1 ( rst $end
$var wire 24 /" data_out [23:0] $end
$var parameter 32 0" DATA_WIDTH $end
$var parameter 32 1" IMAGE_WIDTH $end
$var parameter 32 2" KERNEL_SIZE $end
$var reg 8 3" d0 [7:0] $end
$var reg 8 4" d1 [7:0] $end
$var reg 8 5" d2 [7:0] $end
$var reg 3 6" r_ptr [2:0] $end
$var reg 3 7" w_ptr [2:0] $end
$upscope $end
$upscope $end
$scope module mac1 $end
$var wire 1 % clk $end
$var wire 72 8" data_in [71:0] $end
$var wire 1 K data_in_valid $end
$var wire 1 ( rst $end
$var wire 72 9" weight [71:0] $end
$var parameter 32 :" DATA_WIDTH $end
$var parameter 32 ;" KERNEL_SIZE $end
$var reg 20 <" data_out [19:0] $end
$var reg 1 ; data_out_valid $end
$scope begin genblk1[0] $end
$var parameter 2 =" i $end
$upscope $end
$scope begin genblk1[1] $end
$var parameter 2 >" i $end
$upscope $end
$scope begin genblk1[2] $end
$var parameter 3 ?" i $end
$upscope $end
$scope begin genblk1[3] $end
$var parameter 3 @" i $end
$upscope $end
$scope begin genblk1[4] $end
$var parameter 4 A" i $end
$upscope $end
$scope begin genblk1[5] $end
$var parameter 4 B" i $end
$upscope $end
$scope begin genblk1[6] $end
$var parameter 4 C" i $end
$upscope $end
$scope begin genblk1[7] $end
$var parameter 4 D" i $end
$upscope $end
$scope begin genblk1[8] $end
$var parameter 5 E" i $end
$upscope $end
$upscope $end
$scope module mac10 $end
$var wire 1 % clk $end
$var wire 72 F" data_in [71:0] $end
$var wire 1 K data_in_valid $end
$var wire 1 ( rst $end
$var wire 72 G" weight [71:0] $end
$var parameter 32 H" DATA_WIDTH $end
$var parameter 32 I" KERNEL_SIZE $end
$var reg 20 J" data_out [19:0] $end
$var reg 1 H data_out_valid $end
$scope begin genblk1[0] $end
$var parameter 2 K" i $end
$upscope $end
$scope begin genblk1[1] $end
$var parameter 2 L" i $end
$upscope $end
$scope begin genblk1[2] $end
$var parameter 3 M" i $end
$upscope $end
$scope begin genblk1[3] $end
$var parameter 3 N" i $end
$upscope $end
$scope begin genblk1[4] $end
$var parameter 4 O" i $end
$upscope $end
$scope begin genblk1[5] $end
$var parameter 4 P" i $end
$upscope $end
$scope begin genblk1[6] $end
$var parameter 4 Q" i $end
$upscope $end
$scope begin genblk1[7] $end
$var parameter 4 R" i $end
$upscope $end
$scope begin genblk1[8] $end
$var parameter 5 S" i $end
$upscope $end
$upscope $end
$scope module mac11 $end
$var wire 1 % clk $end
$var wire 72 T" data_in [71:0] $end
$var wire 1 K data_in_valid $end
$var wire 1 ( rst $end
$var wire 72 U" weight [71:0] $end
$var parameter 32 V" DATA_WIDTH $end
$var parameter 32 W" KERNEL_SIZE $end
$var reg 20 X" data_out [19:0] $end
$var reg 1 F data_out_valid $end
$scope begin genblk1[0] $end
$var parameter 2 Y" i $end
$upscope $end
$scope begin genblk1[1] $end
$var parameter 2 Z" i $end
$upscope $end
$scope begin genblk1[2] $end
$var parameter 3 [" i $end
$upscope $end
$scope begin genblk1[3] $end
$var parameter 3 \" i $end
$upscope $end
$scope begin genblk1[4] $end
$var parameter 4 ]" i $end
$upscope $end
$scope begin genblk1[5] $end
$var parameter 4 ^" i $end
$upscope $end
$scope begin genblk1[6] $end
$var parameter 4 _" i $end
$upscope $end
$scope begin genblk1[7] $end
$var parameter 4 `" i $end
$upscope $end
$scope begin genblk1[8] $end
$var parameter 5 a" i $end
$upscope $end
$upscope $end
$scope module mac12 $end
$var wire 1 % clk $end
$var wire 72 b" data_in [71:0] $end
$var wire 1 K data_in_valid $end
$var wire 1 ( rst $end
$var wire 72 c" weight [71:0] $end
$var parameter 32 d" DATA_WIDTH $end
$var parameter 32 e" KERNEL_SIZE $end
$var reg 20 f" data_out [19:0] $end
$var reg 1 D data_out_valid $end
$scope begin genblk1[0] $end
$var parameter 2 g" i $end
$upscope $end
$scope begin genblk1[1] $end
$var parameter 2 h" i $end
$upscope $end
$scope begin genblk1[2] $end
$var parameter 3 i" i $end
$upscope $end
$scope begin genblk1[3] $end
$var parameter 3 j" i $end
$upscope $end
$scope begin genblk1[4] $end
$var parameter 4 k" i $end
$upscope $end
$scope begin genblk1[5] $end
$var parameter 4 l" i $end
$upscope $end
$scope begin genblk1[6] $end
$var parameter 4 m" i $end
$upscope $end
$scope begin genblk1[7] $end
$var parameter 4 n" i $end
$upscope $end
$scope begin genblk1[8] $end
$var parameter 5 o" i $end
$upscope $end
$upscope $end
$scope module mac13 $end
$var wire 1 % clk $end
$var wire 72 p" data_in [71:0] $end
$var wire 1 K data_in_valid $end
$var wire 1 ( rst $end
$var wire 72 q" weight [71:0] $end
$var parameter 32 r" DATA_WIDTH $end
$var parameter 32 s" KERNEL_SIZE $end
$var reg 20 t" data_out [19:0] $end
$var reg 1 B data_out_valid $end
$scope begin genblk1[0] $end
$var parameter 2 u" i $end
$upscope $end
$scope begin genblk1[1] $end
$var parameter 2 v" i $end
$upscope $end
$scope begin genblk1[2] $end
$var parameter 3 w" i $end
$upscope $end
$scope begin genblk1[3] $end
$var parameter 3 x" i $end
$upscope $end
$scope begin genblk1[4] $end
$var parameter 4 y" i $end
$upscope $end
$scope begin genblk1[5] $end
$var parameter 4 z" i $end
$upscope $end
$scope begin genblk1[6] $end
$var parameter 4 {" i $end
$upscope $end
$scope begin genblk1[7] $end
$var parameter 4 |" i $end
$upscope $end
$scope begin genblk1[8] $end
$var parameter 5 }" i $end
$upscope $end
$upscope $end
$scope module mac14 $end
$var wire 1 % clk $end
$var wire 72 ~" data_in [71:0] $end
$var wire 1 K data_in_valid $end
$var wire 1 ( rst $end
$var wire 72 !# weight [71:0] $end
$var parameter 32 "# DATA_WIDTH $end
$var parameter 32 ## KERNEL_SIZE $end
$var reg 20 $# data_out [19:0] $end
$var reg 1 @ data_out_valid $end
$scope begin genblk1[0] $end
$var parameter 2 %# i $end
$upscope $end
$scope begin genblk1[1] $end
$var parameter 2 &# i $end
$upscope $end
$scope begin genblk1[2] $end
$var parameter 3 '# i $end
$upscope $end
$scope begin genblk1[3] $end
$var parameter 3 (# i $end
$upscope $end
$scope begin genblk1[4] $end
$var parameter 4 )# i $end
$upscope $end
$scope begin genblk1[5] $end
$var parameter 4 *# i $end
$upscope $end
$scope begin genblk1[6] $end
$var parameter 4 +# i $end
$upscope $end
$scope begin genblk1[7] $end
$var parameter 4 ,# i $end
$upscope $end
$scope begin genblk1[8] $end
$var parameter 5 -# i $end
$upscope $end
$upscope $end
$scope module mac15 $end
$var wire 1 % clk $end
$var wire 72 .# data_in [71:0] $end
$var wire 1 K data_in_valid $end
$var wire 1 ( rst $end
$var wire 72 /# weight [71:0] $end
$var parameter 32 0# DATA_WIDTH $end
$var parameter 32 1# KERNEL_SIZE $end
$var reg 20 2# data_out [19:0] $end
$var reg 1 > data_out_valid $end
$scope begin genblk1[0] $end
$var parameter 2 3# i $end
$upscope $end
$scope begin genblk1[1] $end
$var parameter 2 4# i $end
$upscope $end
$scope begin genblk1[2] $end
$var parameter 3 5# i $end
$upscope $end
$scope begin genblk1[3] $end
$var parameter 3 6# i $end
$upscope $end
$scope begin genblk1[4] $end
$var parameter 4 7# i $end
$upscope $end
$scope begin genblk1[5] $end
$var parameter 4 8# i $end
$upscope $end
$scope begin genblk1[6] $end
$var parameter 4 9# i $end
$upscope $end
$scope begin genblk1[7] $end
$var parameter 4 :# i $end
$upscope $end
$scope begin genblk1[8] $end
$var parameter 5 ;# i $end
$upscope $end
$upscope $end
$scope module mac16 $end
$var wire 1 % clk $end
$var wire 72 <# data_in [71:0] $end
$var wire 1 K data_in_valid $end
$var wire 1 ( rst $end
$var wire 72 =# weight [71:0] $end
$var parameter 32 ># DATA_WIDTH $end
$var parameter 32 ?# KERNEL_SIZE $end
$var reg 20 @# data_out [19:0] $end
$var reg 1 < data_out_valid $end
$scope begin genblk1[0] $end
$var parameter 2 A# i $end
$upscope $end
$scope begin genblk1[1] $end
$var parameter 2 B# i $end
$upscope $end
$scope begin genblk1[2] $end
$var parameter 3 C# i $end
$upscope $end
$scope begin genblk1[3] $end
$var parameter 3 D# i $end
$upscope $end
$scope begin genblk1[4] $end
$var parameter 4 E# i $end
$upscope $end
$scope begin genblk1[5] $end
$var parameter 4 F# i $end
$upscope $end
$scope begin genblk1[6] $end
$var parameter 4 G# i $end
$upscope $end
$scope begin genblk1[7] $end
$var parameter 4 H# i $end
$upscope $end
$scope begin genblk1[8] $end
$var parameter 5 I# i $end
$upscope $end
$upscope $end
$scope module mac2 $end
$var wire 1 % clk $end
$var wire 72 J# data_in [71:0] $end
$var wire 1 K data_in_valid $end
$var wire 1 ( rst $end
$var wire 72 K# weight [71:0] $end
$var parameter 32 L# DATA_WIDTH $end
$var parameter 32 M# KERNEL_SIZE $end
$var reg 20 N# data_out [19:0] $end
$var reg 1 9 data_out_valid $end
$scope begin genblk1[0] $end
$var parameter 2 O# i $end
$upscope $end
$scope begin genblk1[1] $end
$var parameter 2 P# i $end
$upscope $end
$scope begin genblk1[2] $end
$var parameter 3 Q# i $end
$upscope $end
$scope begin genblk1[3] $end
$var parameter 3 R# i $end
$upscope $end
$scope begin genblk1[4] $end
$var parameter 4 S# i $end
$upscope $end
$scope begin genblk1[5] $end
$var parameter 4 T# i $end
$upscope $end
$scope begin genblk1[6] $end
$var parameter 4 U# i $end
$upscope $end
$scope begin genblk1[7] $end
$var parameter 4 V# i $end
$upscope $end
$scope begin genblk1[8] $end
$var parameter 5 W# i $end
$upscope $end
$upscope $end
$scope module mac3 $end
$var wire 1 % clk $end
$var wire 72 X# data_in [71:0] $end
$var wire 1 K data_in_valid $end
$var wire 1 ( rst $end
$var wire 72 Y# weight [71:0] $end
$var parameter 32 Z# DATA_WIDTH $end
$var parameter 32 [# KERNEL_SIZE $end
$var reg 20 \# data_out [19:0] $end
$var reg 1 7 data_out_valid $end
$scope begin genblk1[0] $end
$var parameter 2 ]# i $end
$upscope $end
$scope begin genblk1[1] $end
$var parameter 2 ^# i $end
$upscope $end
$scope begin genblk1[2] $end
$var parameter 3 _# i $end
$upscope $end
$scope begin genblk1[3] $end
$var parameter 3 `# i $end
$upscope $end
$scope begin genblk1[4] $end
$var parameter 4 a# i $end
$upscope $end
$scope begin genblk1[5] $end
$var parameter 4 b# i $end
$upscope $end
$scope begin genblk1[6] $end
$var parameter 4 c# i $end
$upscope $end
$scope begin genblk1[7] $end
$var parameter 4 d# i $end
$upscope $end
$scope begin genblk1[8] $end
$var parameter 5 e# i $end
$upscope $end
$upscope $end
$scope module mac4 $end
$var wire 1 % clk $end
$var wire 72 f# data_in [71:0] $end
$var wire 1 K data_in_valid $end
$var wire 1 ( rst $end
$var wire 72 g# weight [71:0] $end
$var parameter 32 h# DATA_WIDTH $end
$var parameter 32 i# KERNEL_SIZE $end
$var reg 20 j# data_out [19:0] $end
$var reg 1 5 data_out_valid $end
$scope begin genblk1[0] $end
$var parameter 2 k# i $end
$upscope $end
$scope begin genblk1[1] $end
$var parameter 2 l# i $end
$upscope $end
$scope begin genblk1[2] $end
$var parameter 3 m# i $end
$upscope $end
$scope begin genblk1[3] $end
$var parameter 3 n# i $end
$upscope $end
$scope begin genblk1[4] $end
$var parameter 4 o# i $end
$upscope $end
$scope begin genblk1[5] $end
$var parameter 4 p# i $end
$upscope $end
$scope begin genblk1[6] $end
$var parameter 4 q# i $end
$upscope $end
$scope begin genblk1[7] $end
$var parameter 4 r# i $end
$upscope $end
$scope begin genblk1[8] $end
$var parameter 5 s# i $end
$upscope $end
$upscope $end
$scope module mac5 $end
$var wire 1 % clk $end
$var wire 72 t# data_in [71:0] $end
$var wire 1 K data_in_valid $end
$var wire 1 ( rst $end
$var wire 72 u# weight [71:0] $end
$var parameter 32 v# DATA_WIDTH $end
$var parameter 32 w# KERNEL_SIZE $end
$var reg 20 x# data_out [19:0] $end
$var reg 1 3 data_out_valid $end
$scope begin genblk1[0] $end
$var parameter 2 y# i $end
$upscope $end
$scope begin genblk1[1] $end
$var parameter 2 z# i $end
$upscope $end
$scope begin genblk1[2] $end
$var parameter 3 {# i $end
$upscope $end
$scope begin genblk1[3] $end
$var parameter 3 |# i $end
$upscope $end
$scope begin genblk1[4] $end
$var parameter 4 }# i $end
$upscope $end
$scope begin genblk1[5] $end
$var parameter 4 ~# i $end
$upscope $end
$scope begin genblk1[6] $end
$var parameter 4 !$ i $end
$upscope $end
$scope begin genblk1[7] $end
$var parameter 4 "$ i $end
$upscope $end
$scope begin genblk1[8] $end
$var parameter 5 #$ i $end
$upscope $end
$upscope $end
$scope module mac6 $end
$var wire 1 % clk $end
$var wire 72 $$ data_in [71:0] $end
$var wire 1 K data_in_valid $end
$var wire 1 ( rst $end
$var wire 72 %$ weight [71:0] $end
$var parameter 32 &$ DATA_WIDTH $end
$var parameter 32 '$ KERNEL_SIZE $end
$var reg 20 ($ data_out [19:0] $end
$var reg 1 1 data_out_valid $end
$scope begin genblk1[0] $end
$var parameter 2 )$ i $end
$upscope $end
$scope begin genblk1[1] $end
$var parameter 2 *$ i $end
$upscope $end
$scope begin genblk1[2] $end
$var parameter 3 +$ i $end
$upscope $end
$scope begin genblk1[3] $end
$var parameter 3 ,$ i $end
$upscope $end
$scope begin genblk1[4] $end
$var parameter 4 -$ i $end
$upscope $end
$scope begin genblk1[5] $end
$var parameter 4 .$ i $end
$upscope $end
$scope begin genblk1[6] $end
$var parameter 4 /$ i $end
$upscope $end
$scope begin genblk1[7] $end
$var parameter 4 0$ i $end
$upscope $end
$scope begin genblk1[8] $end
$var parameter 5 1$ i $end
$upscope $end
$upscope $end
$scope module mac7 $end
$var wire 1 % clk $end
$var wire 72 2$ data_in [71:0] $end
$var wire 1 K data_in_valid $end
$var wire 1 ( rst $end
$var wire 72 3$ weight [71:0] $end
$var parameter 32 4$ DATA_WIDTH $end
$var parameter 32 5$ KERNEL_SIZE $end
$var reg 20 6$ data_out [19:0] $end
$var reg 1 / data_out_valid $end
$scope begin genblk1[0] $end
$var parameter 2 7$ i $end
$upscope $end
$scope begin genblk1[1] $end
$var parameter 2 8$ i $end
$upscope $end
$scope begin genblk1[2] $end
$var parameter 3 9$ i $end
$upscope $end
$scope begin genblk1[3] $end
$var parameter 3 :$ i $end
$upscope $end
$scope begin genblk1[4] $end
$var parameter 4 ;$ i $end
$upscope $end
$scope begin genblk1[5] $end
$var parameter 4 <$ i $end
$upscope $end
$scope begin genblk1[6] $end
$var parameter 4 =$ i $end
$upscope $end
$scope begin genblk1[7] $end
$var parameter 4 >$ i $end
$upscope $end
$scope begin genblk1[8] $end
$var parameter 5 ?$ i $end
$upscope $end
$upscope $end
$scope module mac8 $end
$var wire 1 % clk $end
$var wire 72 @$ data_in [71:0] $end
$var wire 1 K data_in_valid $end
$var wire 1 ( rst $end
$var wire 72 A$ weight [71:0] $end
$var parameter 32 B$ DATA_WIDTH $end
$var parameter 32 C$ KERNEL_SIZE $end
$var reg 20 D$ data_out [19:0] $end
$var reg 1 - data_out_valid $end
$scope begin genblk1[0] $end
$var parameter 2 E$ i $end
$upscope $end
$scope begin genblk1[1] $end
$var parameter 2 F$ i $end
$upscope $end
$scope begin genblk1[2] $end
$var parameter 3 G$ i $end
$upscope $end
$scope begin genblk1[3] $end
$var parameter 3 H$ i $end
$upscope $end
$scope begin genblk1[4] $end
$var parameter 4 I$ i $end
$upscope $end
$scope begin genblk1[5] $end
$var parameter 4 J$ i $end
$upscope $end
$scope begin genblk1[6] $end
$var parameter 4 K$ i $end
$upscope $end
$scope begin genblk1[7] $end
$var parameter 4 L$ i $end
$upscope $end
$scope begin genblk1[8] $end
$var parameter 5 M$ i $end
$upscope $end
$upscope $end
$scope module mac9 $end
$var wire 1 % clk $end
$var wire 72 N$ data_in [71:0] $end
$var wire 1 K data_in_valid $end
$var wire 1 ( rst $end
$var wire 72 O$ weight [71:0] $end
$var parameter 32 P$ DATA_WIDTH $end
$var parameter 32 Q$ KERNEL_SIZE $end
$var reg 20 R$ data_out [19:0] $end
$var reg 1 + data_out_valid $end
$scope begin genblk1[0] $end
$var parameter 2 S$ i $end
$upscope $end
$scope begin genblk1[1] $end
$var parameter 2 T$ i $end
$upscope $end
$scope begin genblk1[2] $end
$var parameter 3 U$ i $end
$upscope $end
$scope begin genblk1[3] $end
$var parameter 3 V$ i $end
$upscope $end
$scope begin genblk1[4] $end
$var parameter 4 W$ i $end
$upscope $end
$scope begin genblk1[5] $end
$var parameter 4 X$ i $end
$upscope $end
$scope begin genblk1[6] $end
$var parameter 4 Y$ i $end
$upscope $end
$scope begin genblk1[7] $end
$var parameter 4 Z$ i $end
$upscope $end
$scope begin genblk1[8] $end
$var parameter 5 [$ i $end
$upscope $end
$upscope $end
$upscope $end
$upscope $end
$enddefinitions $end
$comment Show the parameter values. $end
$dumpall
b1000 [$
b111 Z$
b110 Y$
b101 X$
b100 W$
b11 V$
b10 U$
b1 T$
b0 S$
b11 Q$
b1000 P$
b1000 M$
b111 L$
b110 K$
b101 J$
b100 I$
b11 H$
b10 G$
b1 F$
b0 E$
b11 C$
b1000 B$
b1000 ?$
b111 >$
b110 =$
b101 <$
b100 ;$
b11 :$
b10 9$
b1 8$
b0 7$
b11 5$
b1000 4$
b1000 1$
b111 0$
b110 /$
b101 .$
b100 -$
b11 ,$
b10 +$
b1 *$
b0 )$
b11 '$
b1000 &$
b1000 #$
b111 "$
b110 !$
b101 ~#
b100 }#
b11 |#
b10 {#
b1 z#
b0 y#
b11 w#
b1000 v#
b1000 s#
b111 r#
b110 q#
b101 p#
b100 o#
b11 n#
b10 m#
b1 l#
b0 k#
b11 i#
b1000 h#
b1000 e#
b111 d#
b110 c#
b101 b#
b100 a#
b11 `#
b10 _#
b1 ^#
b0 ]#
b11 [#
b1000 Z#
b1000 W#
b111 V#
b110 U#
b101 T#
b100 S#
b11 R#
b10 Q#
b1 P#
b0 O#
b11 M#
b1000 L#
b1000 I#
b111 H#
b110 G#
b101 F#
b100 E#
b11 D#
b10 C#
b1 B#
b0 A#
b11 ?#
b1000 >#
b1000 ;#
b111 :#
b110 9#
b101 8#
b100 7#
b11 6#
b10 5#
b1 4#
b0 3#
b11 1#
b1000 0#
b1000 -#
b111 ,#
b110 +#
b101 *#
b100 )#
b11 (#
b10 '#
b1 &#
b0 %#
b11 ##
b1000 "#
b1000 }"
b111 |"
b110 {"
b101 z"
b100 y"
b11 x"
b10 w"
b1 v"
b0 u"
b11 s"
b1000 r"
b1000 o"
b111 n"
b110 m"
b101 l"
b100 k"
b11 j"
b10 i"
b1 h"
b0 g"
b11 e"
b1000 d"
b1000 a"
b111 `"
b110 _"
b101 ^"
b100 ]"
b11 \"
b10 ["
b1 Z"
b0 Y"
b11 W"
b1000 V"
b1000 S"
b111 R"
b110 Q"
b101 P"
b100 O"
b11 N"
b10 M"
b1 L"
b0 K"
b11 I"
b1000 H"
b1000 E"
b111 D"
b110 C"
b101 B"
b100 A"
b11 @"
b10 ?"
b1 >"
b0 ="
b11 ;"
b1000 :"
b11 2"
b1000 1"
b1000 0"
b11 &"
b1000 %"
b1000 $"
b11 x
b1000 w
b1000 v
b11 l
b1000 k
b1000 j
b101 [
b1 Z
b11 Y
b1000 X
b0 W
b1000 V
b11 P
b1000 O
b1000 N
b1000 M
b11 $
b1000 #
b1000 "
b1000 !
$end
#0
$dumpvars
bx R$
b1100111100001010101010101101011011101011010010111111110010011111010000 O$
bx N$
bx D$
b110110110000011111111000001110001101011111001000111000100011110000001100 A$
bx @$
bx 6$
b100000111000001101111011100010010111010100111111011101010100010010 3$
bx 2$
bx ($
b111010010010100011101000000100011100101010110101110010101110011000111000 %$
bx $$
bx x#
b111111100001010000000000111001001111001111100010000000000001000100000010 u#
bx t#
bx j#
b101010111101110110111001001010001100111000011101000010011110100000100001 g#
bx f#
bx \#
b101101101110000111011111101101101111011000110011110000101110000111110010 Y#
bx X#
bx N#
b110101010010010011110100000110101110110000000101111001110001100111110111 K#
bx J#
bx @#
b101101101010001110000001000001110000001111101111110111100100011011001111 =#
bx <#
bx 2#
b111001011100000000101100111010010010010011111110110110000001111111011100 /#
bx .#
bx $#
b101111001110000111001000000000101110000111111101110100011100011011001001 !#
bx ~"
bx t"
b111010001111100100110111110111110001101110111010100111001100001111010010 q"
bx p"
bx f"
b101111111110100100011011110101000001000000010010101110011110001011011000 c"
bx b"
bx X"
b1110011100001010000111101110011011010001001001011101000011001100 U"
bx T"
bx J"
b100110110001010011101101000001011101101000011010110001111110010000011000 G"
bx F"
bx <"
b1100001011111100111000111001110001011111100110110110001000100011010 9"
bx 8"
bx 7"
bx 6"
bx 5"
bx 4"
bx 3"
bx /"
x."
0-"
bx ,"
bx +"
bx *"
bx )"
bx ("
bx '"
bx #"
x""
0!"
bx ~
bx }
bx |
bx {
bx z
bx y
bx u
xt
0s
bx r
bx q
bx p
bx o
bx n
bx m
bx i
xh
0g
bx f
bx e
bx d
xc
bx b
bx a
bx `
b0 _
bx ^
bx ]
bx \
bx U
bx T
bx S
bx R
bx Q
bx L
xK
bx J
bx I
xH
bx G
xF
bx E
xD
bx C
xB
bx A
x@
bx ?
x>
bx =
x<
x;
bx :
x9
bx 8
x7
bx 6
x5
bx 4
x3
bx 2
x1
bx 0
x/
bx .
x-
bx ,
x+
bx *
bx )
0(
0'
bx &
0%
$end
#5
0."
0""
0t
0h
b0 `
b0 L
b0 ^
b0 8"
b0 F"
b0 T"
b0 b"
b0 p"
b0 ~"
b0 .#
b0 <#
b0 J#
b0 X#
b0 f#
b0 t#
b0 $$
b0 2$
b0 @$
b0 N$
b0 q
b0 o
b0 n
b0 U
b0 i
b0 m
b0 p
b0 }
b0 {
b0 z
b0 T
b0 u
b0 y
b0 |
b0 +"
b0 )"
b0 ("
b0 S
b0 #"
b0 '"
b0 *"
b0 7"
b0 5"
b0 4"
b0 R
b0 /"
b0 3"
b0 6"
b0 e
0K
0c
b0 d
b0 a
b0 \
b0 b
b0 ]
0;
b0 J
b0 <"
09
b0 :
b0 N#
07
b0 8
b0 \#
05
b0 6
b0 j#
03
b0 4
b0 x#
01
b0 2
b0 ($
0/
b0 0
b0 6$
0-
b0 .
b0 D$
0+
b0 ,
b0 R$
0H
b0 I
b0 J"
0F
b0 G
b0 X"
0D
b0 E
b0 f"
0B
b0 C
b0 t"
0@
b0 A
b0 $#
0>
b0 ?
b0 2#
0<
b0 =
b0 @#
1%
#10
1g
b1 _
1'
b1 &
b1 *
b1 Q
b1 f
b1 r
b1 ~
b1 ,"
0%
b1 )
1(
#15
b1 a
b1 e
b1 q
1%
#20
b10 )
b10 &
b10 *
b10 Q
b10 f
b10 r
b10 ~
b10 ,"
0%
#25
b10 q
b10 e
b10 a
1%
#30
b11 )
b11 &
b11 *
b11 Q
b11 f
b11 r
b11 ~
b11 ,"
0%
#35
b11 a
b11 e
b11 q
1%
#40
b100 )
b100 &
b100 *
b100 Q
b100 f
b100 r
b100 ~
b100 ,"
0%
#45
b100 q
b100 e
b100 a
1%
#50
b101 )
b101 &
b101 *
b101 Q
b101 f
b101 r
b101 ~
b101 ,"
0%
#55
b101 a
b101 e
b101 q
1%
#60
b110 )
b110 &
b110 *
b110 Q
b110 f
b110 r
b110 ~
b110 ,"
0%
#65
b110 q
b110 e
b110 a
1%
#70
b111 )
b111 &
b111 *
b111 Q
b111 f
b111 r
b111 ~
b111 ,"
0%
#75
b111 a
b111 e
b111 q
1%
#80
b1000 )
b1000 &
b1000 *
b1000 Q
b1000 f
b1000 r
b1000 ~
b1000 ,"
0%
#85
1s
0g
b10 _
b0 q
b1000 e
b0 a
b1 \
1%
#90
b1001 )
b1001 &
b1001 *
b1001 Q
b1001 f
b1001 r
b1001 ~
b1001 ,"
0%
#95
b1 a
b1001 e
b1 }
1%
#100
b1010 )
b1010 &
b1010 *
b1010 Q
b1010 f
b1010 r
b1010 ~
b1010 ,"
0%
#105
b10 }
b1010 e
b10 a
1%
#110
b1011 )
b1011 &
b1011 *
b1011 Q
b1011 f
b1011 r
b1011 ~
b1011 ,"
0%
#115
b11 a
b1011 e
b11 }
1%
#120
b1100 )
b1100 &
b1100 *
b1100 Q
b1100 f
b1100 r
b1100 ~
b1100 ,"
0%
#125
b100 }
b1100 e
b100 a
1%
#130
b1101 )
b1101 &
b1101 *
b1101 Q
b1101 f
b1101 r
b1101 ~
b1101 ,"
0%
#135
b101 a
b1101 e
b101 }
1%
#140
b1110 )
b1110 &
b1110 *
b1110 Q
b1110 f
b1110 r
b1110 ~
b1110 ,"
0%
#145
b110 }
b1110 e
b110 a
1%
#150
b1111 )
b1111 &
b1111 *
b1111 Q
b1111 f
b1111 r
b1111 ~
b1111 ,"
0%
#155
b111 a
b1111 e
b111 }
1%
